<svg width="14" height="14" viewBox="0 0 14 14" fill="none" xmlns="http://www.w3.org/2000/svg">
<path d="M6.53676 13.7824H7.46676V7.36242H13.4668V6.46242H7.46676V0.0124235H6.53676V6.46242H0.536758V7.36242H6.53676V13.7824Z" fill="#5491F5"/>
</svg>
